{
    "compilerOptions": {
        "baseUrl": ".",
        "paths": {
            "c/recordAnonymizer": [
                "recordAnonymizer/recordAnonymizer.js"
            ]
        },
        "experimentalDecorators": true
    },
    "include": [
        "**/*",
        "../../../../.sfdx/typings/lwc/**/*.d.ts"
    ],
    "typeAcquisition": {
        "include": [
            "jest"
        ]
    }
}
